<svg xmlns="http://www.w3.org/2000/svg" width="13" height="16" viewBox="0 0 13 16">
    <path fill="#FFF" fill-rule="evenodd" d="M6.223 3.298h-.07l-.844.176c-.797.164-1.454.58-1.97 1.248a3.614 3.614 0 0 0-.773 2.267v4.465l-.316.352-.281.281h8.437l-.281-.281-.316-.352V6.99c0-.843-.258-1.6-.774-2.267-.515-.668-1.172-1.084-1.969-1.248-.398-.117-.68-.176-.843-.176zm-.844-2.215c.21-.21.48-.316.809-.316.328 0 .591.105.79.316.2.211.3.469.3.774v.527a4.73 4.73 0 0 1 2.618 1.67 4.54 4.54 0 0 1 1.038 2.935v4.008l1.441 1.477v.738H0v-.738l1.441-1.477V6.99A4.54 4.54 0 0 1 2.48 4.054a4.73 4.73 0 0 1 2.619-1.67v-.527c0-.305.093-.563.28-.774zm2.25 12.832c0 .399-.14.744-.422 1.037-.281.293-.621.44-1.02.44-.398 0-.738-.147-1.019-.44a1.448 1.448 0 0 1-.422-1.037H7.63z"/>
</svg>
